Chapter 2 Example datasets | Visualisation of biomolecular data
…
## Parsed with column specification:
## cols(
##   Protein = col_character(),
##   Log2Intensity = col_double(),
##   Run = col_character(),
##   Condition = col_character(),
##   BioReplicate = col_double(),
##   Intensity = col_double(),
##   TechReplicate = col_character()
## )

iprg

## # A tibble: 36,321 x 7
##    Protein Log2Intensity Run   Condition BioReplicate Intensity
##    <chr>           <dbl> <chr> <chr>            <dbl>     <dbl>
##  1 sp|D6V…          26.8 JD_0… Conditio…            1    1.18e8
##  2 sp|D6V…          26.6 JD_0… Conditio…            1    1.02e8
##  3 sp|D6V…          26.6 JD_0… Conditio…            1    1.01e8
##  4 sp|D6V…          26.8 JD_0… Conditio…            2    1.20e8
##  5 sp|D6V…          26.8 JD_0… Conditio…            2    1.16e8
##  6 sp|D6V…          26.6 JD_0… Conditio…            2    1.02e8
##  7 sp|D6V…          26.6 JD_0… Conditio…            3    1.04e8
##  8 sp|D6V…          26.5 JD_0… Conditio…            3    9.47e7
##  9 sp|D6V…          26.5 JD_0… Conditio…            3    9.69e7
## 10 sp|D6V…          26.6 JD_0… Conditio…            4    1.02e8
## # … with 36,311 more rows, and 1 more variable: TechReplicate <chr>
…
##             
##                 A    B    C
##   Condition1 3026 3026 3027
##   Condition2 3027 3027 3027
##   Condition3 3027 3027 3027
##   Condition4 3027 3026 3027

This data is in the so-called long format. In some applications, it is more convenient to have the data in wide format, where rows contain the protein expression data for all samples.

Let’s start by simplifying the data to keep only the relevant columns:

(iprg2 <- iprg[, c(1, 3, 6)])

## # A tibble: 36,321 x 3
##    Protein              Run                        Intensity
##    <chr>                <chr>                          <dbl>
##  1 sp|D6VTK4|STE2_YEAST JD_06232014_sample1_B.raw 117845016.
##  2 sp|D6VTK4|STE2_YEAST JD_06232014_sample1_C.raw 102273602.
##  3 sp|D6VTK4|STE2_YEAST JD_06232014_sample1-A.raw 100526837.
##  4 sp|D6VTK4|STE2_YEAST JD_06232014_sample2_A.raw 119765106.
##  5 sp|D6VTK4|STE2_YEAST JD_06232014_sample2_B.raw 116382798.
##  6 sp|D6VTK4|STE2_YEAST JD_06232014_sample2_C.raw 102328260.
##  7 sp|D6VTK4|STE2_YEAST JD_06232014_sample3_A.raw 103830944.
##  8 sp|D6VTK4|STE2_YEAST JD_06232014_sample3_B.raw  94660680 
##  9 sp|D6VTK4|STE2_YEAST JD_06232014_sample3_C.raw  96919972.
## 10 sp|D6VTK4|STE2_YEAST JD_06232014_sample4_B.raw 102150172.
## # … with 36,311 more rows

We can convert the iPRG into a wide format with tidyr::spread:

library("tidyr")
(iprg3 <- spread(iprg2, key = Run, value = Intensity))

## # A tibble: 3,027 x 13
##    Protein JD_06232014_sam… JD_06232014_sam… `JD_06232014_sa…
##    <chr>              <dbl>            <dbl>            <dbl>
##  1 sp|D6V…       117845016.       102273602.       100526837.
##  2 sp|O13…        27618234.        26774670.        27598550.
##  3 sp|O13…        10892143.        16948335.        11625198.
##  4 sp|O13…       192490784.       175282010.        20606703.
##  5 sp|O13…       156581624.       117211277.       145493943.
##  6 sp|O13…        71664672.        82193735.        75530595.
##  7 sp|O13…         9087607.         9324409.        10479297.
##  8 sp|O14…       788997917.      1012548158        670287886.
##  9 sp|O14…       331891060.       405043875.       383229875.
## 10 sp|O14…         6989247.         4688128.         4769092.
## # … with 3,017 more rows, and 9 more variables:
## #   JD_06232014_sample2_A.raw <dbl>, JD_06232014_sample2_B.raw <dbl>,
## #   JD_06232014_sample2_C.raw <dbl>, JD_06232014_sample3_A.raw <dbl>,
## #   JD_06232014_sample3_B.raw <dbl>, JD_06232014_sample3_C.raw <dbl>,
## #   JD_06232014_sample4_B.raw <dbl>, JD_06232014_sample4_C.raw <dbl>,
## #   `JD_06232014_sample4-A.raw` <dbl>
…
The opposite operation to spread is gather, also from the tidyr package:

(iprg4 <- gather(iprg3, key = Run, value = Intensity, -Protein))

## # A tibble: 36,324 x 3
##    Protein               Run                        Intensity
##    <chr>                 <chr>                          <dbl>
##  1 sp|D6VTK4|STE2_YEAST  JD_06232014_sample1_B.raw 117845016.
##  2 sp|O13297|CET1_YEAST  JD_06232014_sample1_B.raw  27618234.
##  3 sp|O13329|FOB1_YEAST  JD_06232014_sample1_B.raw  10892143.
##  4 sp|O13539|THP2_YEAST  JD_06232014_sample1_B.raw 192490784.
##  5 sp|O13547|CCW14_YEAST JD_06232014_sample1_B.raw 156581624.
##  6 sp|O13563|RPN13_YEAST JD_06232014_sample1_B.raw  71664672.
##  7 sp|O13585|YP089_YEAST JD_06232014_sample1_B.raw   9087607.
##  8 sp|O14455|RL36B_YEAST JD_06232014_sample1_B.raw 788997917.
##  9 sp|O14467|MBF1_YEAST  JD_06232014_sample1_B.raw 331891060.
## 10 sp|O14468|YO304_YEAST JD_06232014_sample1_B.raw   6989247.
## # … with 36,314 more rows
…
## [1] 36321

nrow(iprg4)

## [1] 36324

nrow(na.omit(iprg4))

## [1] 36321

which can be accounted for by removing rows with missing values by setting na.rm = TRUE.

(iprg5 <- gather(iprg3, key = Run, value = Intensity, -Protein, na.rm = TRUE))

## # A tibble: 36,321 x 3
##    Protein               Run                        Intensity
##    <chr>                 <chr>                          <dbl>
##  1 sp|D6VTK4|STE2_YEAST  JD_06232014_sample1_B.raw 117845016.
##  2 sp|O13297|CET1_YEAST  JD_06232014_sample1_B.raw  27618234.
##  3 sp|O13329|FOB1_YEAST  JD_06232014_sample1_B.raw  10892143.
##  4 sp|O13539|THP2_YEAST  JD_06232014_sample1_B.raw 192490784.
##  5 sp|O13547|CCW14_YEAST JD_06232014_sample1_B.raw 156581624.
##  6 sp|O13563|RPN13_YEAST JD_06232014_sample1_B.raw  71664672.
##  7 sp|O13585|YP089_YEAST JD_06232014_sample1_B.raw   9087607.
##  8 sp|O14455|RL36B_YEAST JD_06232014_sample1_B.raw 788997917.
##  9 sp|O14467|MBF1_YEAST  JD_06232014_sample1_B.raw 331891060.
## 10 sp|O14468|YO304_YEAST JD_06232014_sample1_B.raw   6989247.
## # … with 36,311 more rows
…
(crcdf <- readr::read_csv("http://bit.ly/VisBiomedDataCrcCsv"))

## Parsed with column specification:
## cols(
##   .default = col_double(),
##   Sample = col_character(),
##   Group = col_character(),
##   Gender = col_character(),
##   Tumour_location = col_character(),
##   Sub_group = col_character()
## )

## See spec(...) for full column specifications.

## # A tibble: 200 x 79
##    A1AG2   AFM  AHSG `AIAG-Bovine`  ANT3  AOC3  APOB  ATRN   BTD C20orf3
##    <dbl> <dbl> <dbl>         <dbl> <dbl> <dbl> <dbl> <dbl> <dbl>   <dbl>
##  1  14.2  16.1  20.0          15.3  17.2 10.0   15.5  14.4  16.3   10.7 
##  2  15.0  16.0  19.7          15.2  17.3  9.04  15.1  14.0  16.2   10.7 
##  3  15.6  16.1  19.7          15.6  17.6 10.4   16.0  14.6  16.5   11.2 
##  4  15.4  16.3  19.7          15.1  17.4  9.50  15.7  14.1  16.3    9.97
##  5  16.0  17.0  20.4          15.6  18.0  9.65  16.2  14.2  16.5   12.6 
##  6  13.9  16.5  19.9          13.4  16.3  9.52  14.5  13.7  15.8   10.6 
##  7  14.3  16.4  20.1          15.1  17.4  9.72  14.7  13.3  16.4   11.4 
##  8  13.6  17.1  19.9          14.9  17.3  8.79  14.9  12.7  16.1   10.8 
##  9  15.8  15.9  18.6          15.1  16.7  8.95  14.7  13.2  15.6   11.6 
## 10  15.4  16.2  20.1          15.4  17.6 10.3   15.9  14.7  16.5   11.4 
## # … with 190 more rows, and 69 more variables: CADM1 <dbl>, CD163 <dbl>,
## #   CD44 <dbl>, CDH5 <dbl>, CFH <dbl>, CFI <dbl>, CLU <dbl>, CP <dbl>,
## #   CTSD <dbl>, DKFZp686N02209 <dbl>, DSG2 <dbl>, ECM1 <dbl>, F11 <dbl>,
## #   F5 <dbl>, FCGBP <dbl>, `FETUA-Bovine` <dbl>, FETUB <dbl>, FGA <dbl>,
## #   FGG <dbl>, FHR3 <dbl>, FN1 <dbl>, GOLM1 <dbl>, HP <dbl>, HRG <dbl>,
## #   HYOU1 <dbl>, ICAM1 <dbl>, IGFBP3 <dbl>, IGHA2 <dbl>, IGHG2 <dbl>,
## #   ITIH4 <dbl>, KLKB1 <dbl>, KNG1 <dbl>, LAMP2 <dbl>, LCN2 <dbl>,
## #   LGALS3BP <dbl>, LRG1 <dbl>, LUM <dbl>, LYVE1 <dbl>, MMRN1 <dbl>,
## #   MPO <dbl>, MRC2 <dbl>, MST1 <dbl>, NCAM1 <dbl>, ORM1 <dbl>,
## #   PGCP <dbl>, PIGR <dbl>, PLTP <dbl>, PLXDC2 <dbl>, PON1 <dbl>,
## #   PRG4 <dbl>, PROC <dbl>, PTPRJ <dbl>, Q5JNX2 <dbl>, SERPINA1 <dbl>,
## #   SERPINA3 <dbl>, SERPINA6 <dbl>, SERPINA7 <dbl>, THBS1 <dbl>,
## #   TIMP1 <dbl>, TNC <dbl>, VTN <dbl>, VWF <dbl>, Sample <chr>,
## #   Group <chr>, Age <dbl>, Gender <chr>, Cancer_stage <dbl>,
## #   Tumour_location <chr>, Sub_group <chr>

This dataset is in the wide format. It contains the intensity of the proteins in columns 1 to 72 for each of the 200 samples along the rows. Generally, omics datasets contain the features (proteins, transcripts, …) along the rows and the samples along the columns.

In columns 73 to 79, we sample metadata.

crcdf[, 73:79]

## # A tibble: 200 x 7
##    Sample Group   Age Gender Cancer_stage Tumour_location Sub_group
##    <chr>  <chr> <dbl> <chr>         <dbl> <chr>           <chr>    
##  1 P1A10  CRC      60 female            1 colon           CRC      
##  2 P1A2   CRC      70 male              1 rectum          CRC      
##  3 P1A4   CRC      65 male              1 rectum          CRC      
##  4 P1A6   CRC      65 female            4 colon           CRC      
##  5 P1B12  CRC      62 female            3 colon           CRC      
##  6 P1B2   CRC      55 male              2 colon           CRC      
##  7 P1B3   CRC      61 male              2 rectum          CRC      
##  8 P1B6   CRC      52 male              4 rectum          CRC      
##  9 P1B9   CRC      89 female            4 colon           CRC      
## 10 P1C11  CRC      81 male              1 rectum          CRC      
## # … with 190 more rows
…
