Visualisation of biomolecular data
…
In addition to displaying the data type of each column under its name, it only prints the first few rows of data and only as many columns as fit on one screen.

Columns of class character are never converted into factors.

4.1 Selecting columns and filtering rows

We’re going to learn some of the most common dplyr functions: select(), filter(), mutate(), group_by(), and summarize(). To select columns of a data frame, use select(). The first argument to this function is the data frame, and the subsequent arguments are the columns to keep.

select(iprg, Protein, Run, Condition)

To choose rows based on a specific criteria, use filter():

filter(iprg, BioReplicate == 1)

## # A tibble: 9,079 x 7
##    Protein      Log2Intensity Run         Condition BioReplicate Intensity
##    <chr>                <dbl> <chr>       <chr>            <int>     <dbl>
##  1 sp|D6VTK4|S…          26.8 JD_0623201… Conditio…            1    1.18e8
##  2 sp|D6VTK4|S…          26.6 JD_0623201… Conditio…            1    1.02e8
##  3 sp|D6VTK4|S…          26.6 JD_0623201… Conditio…            1    1.01e8
##  4 sp|O13297|C…          24.7 JD_0623201… Conditio…            1    2.76e7
##  5 sp|O13297|C…          24.7 JD_0623201… Conditio…            1    2.68e7
##  6 sp|O13297|C…          24.7 JD_0623201… Conditio…            1    2.76e7
##  7 sp|O13329|F…          23.4 JD_0623201… Conditio…            1    1.09e7
##  8 sp|O13329|F…          24.0 JD_0623201… Conditio…            1    1.69e7
##  9 sp|O13329|F…          23.5 JD_0623201… Conditio…            1    1.16e7
## 10 sp|O13539|T…          27.5 JD_0623201… Conditio…            1    1.92e8
## # ... with 9,069 more rows, and 1 more variable: TechReplicate <chr>

filter(iprg, Condition == 'Condition2')

## # A tibble: 9,081 x 7
##    Protein      Log2Intensity Run         Condition BioReplicate Intensity
##    <chr>                <dbl> <chr>       <chr>            <int>     <dbl>
##  1 sp|D6VTK4|S…          26.8 JD_0623201… Conditio…            2    1.20e8
##  2 sp|D6VTK4|S…          26.8 JD_0623201… Conditio…            2    1.16e8
##  3 sp|D6VTK4|S…          26.6 JD_0623201… Conditio…            2    1.02e8
##  4 sp|O13297|C…          24.5 JD_0623201… Conditio…            2    2.41e7
##  5 sp|O13297|C…          24.7 JD_0623201… Conditio…            2    2.68e7
##  6 sp|O13297|C…          24.6 JD_0623201… Conditio…            2    2.51e7
##  7 sp|O13329|F…          23.2 JD_0623201… Conditio…            2    9.45e6
##  8 sp|O13329|F…          23.4 JD_0623201… Conditio…            2    1.13e7
##  9 sp|O13329|F…          23.8 JD_0623201… Conditio…            2    1.43e7
## 10 sp|O13539|T…          25.9 JD_0623201… Conditio…            2    6.18e7
## # ... with 9,071 more rows, and 1 more variable: TechReplicate <chr>

4.2 Pipes

But what if you wanted to select and filter at the same time? There are three ways to do this: use intermediate steps, nested functions, or pipes.

With intermediate steps, you essentially create a temporary data frame and use that as input to the next function. This can clutter up your workspace with lots of objects. You can also nest functions (i.e. one function inside of another). This is handy, but can be difficult to read if too many functions are nested as things are evaluated from the inside out.

The last option, pipes, are a fairly recent addition to R. Pipes let you take the output of one function and send it directly to the next, which is useful when you need to do many things to the same dataset. Pipes in R look like %>% and are made available via the magrittr package, installed automatically with dplyr. If you use RStudio, you can type the pipe with Ctrl + Shift + M if you have a PC or Cmd + Shift + M if you have a Mac.

iprg %>%
  filter(Intensity > 1e8) %>%
  select(Protein, Condition, Intensity)

## # A tibble: 4,729 x 3
##    Protein              Condition   Intensity
##    <chr>                <chr>           <dbl>
##  1 sp|D6VTK4|STE2_YEAST Condition1 117845016.
##  2 sp|D6VTK4|STE2_YEAST Condition1 102273602.
##  3 sp|D6VTK4|STE2_YEAST Condition1 100526837.
##  4 sp|D6VTK4|STE2_YEAST Condition2 119765106.
##  5 sp|D6VTK4|STE2_YEAST Condition2 116382798.
##  6 sp|D6VTK4|STE2_YEAST Condition2 102328260.
##  7 sp|D6VTK4|STE2_YEAST Condition3 103830944.
##  8 sp|D6VTK4|STE2_YEAST Condition4 102150172.
##  9 sp|D6VTK4|STE2_YEAST Condition4 105724288.
## 10 sp|O13539|THP2_YEAST Condition1 192490784.
## # ... with 4,719 more rows

In the above, we use the pipe to send the iprg dataset first through filter() to keep rows where Intensity is greater than 1e8, then through select() to keep only the Protein, Condition, and Intensity columns. Since %>% takes the object on its left and passes it as the first argument to the function on its right, we don’t need to explicitly include it as an argument to the filter() and select() functions anymore.

If we wanted to create a new object with this smaller version of the data, we could do so by assigning it a new name:

iprg_sml <- iprg %>%
    filter(Intensity > 1e8) %>%
    select(Protein, Condition, Intensity)

iprg_sml

## # A tibble: 4,729 x 3
##    Protein              Condition   Intensity
##    <chr>                <chr>           <dbl>
##  1 sp|D6VTK4|STE2_YEAST Condition1 117845016.
##  2 sp|D6VTK4|STE2_YEAST Condition1 102273602.
##  3 sp|D6VTK4|STE2_YEAST Condition1 100526837.
##  4 sp|D6VTK4|STE2_YEAST Condition2 119765106.
##  5 sp|D6VTK4|STE2_YEAST Condition2 116382798.
##  6 sp|D6VTK4|STE2_YEAST Condition2 102328260.
##  7 sp|D6VTK4|STE2_YEAST Condition3 103830944.
##  8 sp|D6VTK4|STE2_YEAST Condition4 102150172.
##  9 sp|D6VTK4|STE2_YEAST Condition4 105724288.
## 10 sp|O13539|THP2_YEAST Condition1 192490784.
## # ... with 4,719 more rows
…
## Answer
iprg %>%
    filter(Log2Intensity > 20) %>%
    select(Protein, Condition)

4.3 Mutate

Frequently you’ll want to create new columns based on the values in existing columns, for example to do unit conversions, or find the ratio of values in two columns. For this we’ll use mutate().

To create a new column of weight in kg:

iprg %>%
  mutate(Log10Intensity = log10(Intensity))

## # A tibble: 36,321 x 8
##    Protein      Log2Intensity Run         Condition BioReplicate Intensity
##    <chr>                <dbl> <chr>       <chr>            <int>     <dbl>
##  1 sp|D6VTK4|S…          26.8 JD_0623201… Conditio…            1    1.18e8
##  2 sp|D6VTK4|S…          26.6 JD_0623201… Conditio…            1    1.02e8
##  3 sp|D6VTK4|S…          26.6 JD_0623201… Conditio…            1    1.01e8
##  4 sp|D6VTK4|S…          26.8 JD_0623201… Conditio…            2    1.20e8
##  5 sp|D6VTK4|S…          26.8 JD_0623201… Conditio…            2    1.16e8
##  6 sp|D6VTK4|S…          26.6 JD_0623201… Conditio…            2    1.02e8
##  7 sp|D6VTK4|S…          26.6 JD_0623201… Conditio…            3    1.04e8
##  8 sp|D6VTK4|S…          26.5 JD_0623201… Conditio…            3    9.47e7
##  9 sp|D6VTK4|S…          26.5 JD_0623201… Conditio…            3    9.69e7
## 10 sp|D6VTK4|S…          26.6 JD_0623201… Conditio…            4    1.02e8
## # ... with 36,311 more rows, and 2 more variables: TechReplicate <chr>,
## #   Log10Intensity <dbl>

You can also create a second new column based on the first new column within the same call of mutate():

iprg %>%
    mutate(Log10Intensity = log10(Intensity),
           Log10Intensity2 = Log10Intensity * 2)

## # A tibble: 36,321 x 9
##    Protein      Log2Intensity Run         Condition BioReplicate Intensity
##    <chr>                <dbl> <chr>       <chr>            <int>     <dbl>
##  1 sp|D6VTK4|S…          26.8 JD_0623201… Conditio…            1    1.18e8
##  2 sp|D6VTK4|S…          26.6 JD_0623201… Conditio…            1    1.02e8
##  3 sp|D6VTK4|S…          26.6 JD_0623201… Conditio…            1    1.01e8
##  4 sp|D6VTK4|S…          26.8 JD_0623201… Conditio…            2    1.20e8
##  5 sp|D6VTK4|S…          26.8 JD_0623201… Conditio…            2    1.16e8
##  6 sp|D6VTK4|S…          26.6 JD_0623201… Conditio…            2    1.02e8
##  7 sp|D6VTK4|S…          26.6 JD_0623201… Conditio…            3    1.04e8
##  8 sp|D6VTK4|S…          26.5 JD_0623201… Conditio…            3    9.47e7
##  9 sp|D6VTK4|S…          26.5 JD_0623201… Conditio…            3    9.69e7
## 10 sp|D6VTK4|S…          26.6 JD_0623201… Conditio…            4    1.02e8
## # ... with 36,311 more rows, and 3 more variables: TechReplicate <chr>,
## #   Log10Intensity <dbl>, Log10Intensity2 <dbl>
…
Let’s use a modified iprg data that contains missing values for the next example. It can be loaded with

if (!file.exists("./data/iprgna.rda"))
    download.file("http://bit.ly/VisBiomedDataIprgNA",
                  "./data/iprgna.rda")
load("./data/iprgna.rda")

Challenge

Using the iprgna data repeat the creation of a new Log10Intensisty column.

iprgna %>% mutate(Log10Intensity = log10(Intensity))

## # A tibble: 36,321 x 7
##    Protein      Run         Condition BioReplicate Intensity TechReplicate
##    <chr>        <chr>       <chr>            <int>     <dbl> <chr>        
##  1 sp|D6VTK4|S… JD_0623201… Conditio…            1   NA      B            
##  2 sp|D6VTK4|S… JD_0623201… Conditio…            1    1.02e8 C            
##  3 sp|D6VTK4|S… JD_0623201… Conditio…            1   NA      A            
##  4 sp|D6VTK4|S… JD_0623201… Conditio…            2    1.20e8 A            
##  5 sp|D6VTK4|S… JD_0623201… Conditio…            2   NA      B            
##  6 sp|D6VTK4|S… JD_0623201… Conditio…            2    1.02e8 C            
##  7 sp|D6VTK4|S… JD_0623201… Conditio…            3    1.04e8 A            
##  8 sp|D6VTK4|S… JD_0623201… Conditio…            3    9.47e7 B            
##  9 sp|D6VTK4|S… JD_0623201… Conditio…            3    9.69e7 C            
## 10 sp|D6VTK4|S… JD_0623201… Conditio…            4    1.02e8 B            
## # ... with 36,311 more rows, and 1 more variable: Log10Intensity <dbl>

The first few rows of the output are full of NAs, so if we wanted to remove those we could insert a filter() in the chain:

iprgna %>%
    filter(!is.na(Intensity)) %>%
    mutate(Log10Intensity = log10(Intensity))

## # A tibble: 35,318 x 7
##    Protein      Run         Condition BioReplicate Intensity TechReplicate
##    <chr>        <chr>       <chr>            <int>     <dbl> <chr>        
##  1 sp|D6VTK4|S… JD_0623201… Conditio…            1    1.02e8 C            
##  2 sp|D6VTK4|S… JD_0623201… Conditio…            2    1.20e8 A            
##  3 sp|D6VTK4|S… JD_0623201… Conditio…            2    1.02e8 C            
##  4 sp|D6VTK4|S… JD_0623201… Conditio…            3    1.04e8 A            
##  5 sp|D6VTK4|S… JD_0623201… Conditio…            3    9.47e7 B            
##  6 sp|D6VTK4|S… JD_0623201… Conditio…            3    9.69e7 C            
##  7 sp|D6VTK4|S… JD_0623201… Conditio…            4    1.02e8 B            
##  8 sp|D6VTK4|S… JD_0623201… Conditio…            4    8.77e7 C            
##  9 sp|D6VTK4|S… JD_0623201… Conditio…            4    1.06e8 A            
## 10 sp|O13297|C… JD_0623201… Conditio…            1    2.76e7 B            
## # ... with 35,308 more rows, and 1 more variable: Log10Intensity <dbl>
…
